{
    "seances": [
      {
        "numero": 1,
        "notions": [
            "Fonctions : vocabulaire",
            "Calcul numérique : puissances"
        ],
        "echauffement": "https://coopmaths.fr/alea/?uuid=8117d&id=3F13&i=1&uuid=b8946&id=3F12-4&i=1&uuid=ba520&id=3F10-2&n=1&d=10&s=3&s2=1&s3=1&i=1&cd=1&uuid=379cd&id=3C10-2&n=2&d=10&s=5&s2=3&i=1&cd=1&uuid=760d7&id=4C30-1&n=1&d=10&s=4&i=1&cd=1&uuid=a0d16&id=4C32&n=2&d=10&s=1&s2=2&i=1&cd=1&v=eleve&es=1111001&title=Je+teste+mes+connaissances",
        "exercices": [
            "uuid=b92da&id=3F10&alea=QivO",
            "uuid=4b121&id=3F13-1&alea=WS95",
            "uuid=ba520&id=3F10-2&n=2&d=10&s=3&s2=1&s3=1&alea=xKpn&cd=1",
            "uuid=379cd&id=3C10-2&n=4&d=10&s=5&s2=3&alea=yOs7&cd=1",
            "uuid=760d7&id=4C30-1&n=3&d=10&s=4&alea=dJUI&cd=1&cols=1",
            "uuid=a0d16&id=4C32&n=2&d=10&s=1&s2=2&alea=VBKQ&cd=1&cols=1"
        ],
        "test": "https://coopmaths.fr/alea/?uuid=8117d&id=3F13&i=1&uuid=b8946&id=3F12-4&i=1&uuid=ba520&id=3F10-2&n=1&d=10&s=3&s2=1&s3=1&i=1&cd=1&uuid=379cd&id=3C10-2&n=2&d=10&s=5&s2=3&i=1&cd=1&uuid=760d7&id=4C30-1&n=1&d=10&s=4&i=1&cd=1&uuid=a0d16&id=4C32&n=1&d=10&s=1&s2=2&i=1&cd=1&v=eleve&es=1111001&title=Je+teste+mes+connaissances"
      },
      {
        "numero": 2,
        "notions": [
            "Géométrie : Pythagore",
            "Calcul numérique : priorités, relatifs"
        ],
        "echauffement": "https://coopmaths.fr/alea/?uuid=8117d&id=3F13&i=1&uuid=b8946&id=3F12-4&i=1&uuid=ba520&id=3F10-2&n=1&d=10&s=3&s2=1&s3=1&i=1&cd=1&uuid=379cd&id=3C10-2&n=2&d=10&s=5&s2=3&i=1&cd=1&uuid=760d7&id=4C30-1&n=1&d=10&s=4&i=1&cd=1&uuid=a0d16&id=4C32&n=2&d=10&s=1&s2=2&i=1&cd=1&v=eleve&es=1111001&title=Je+teste+mes+connaissances",
        "exercices": [
            "uuid=bd660&id=4G20&n=2&d=10&s=3&s2=3&alea=8nJ5&cd=1",
            "uuid=ab5d4&id=4G21&n=2&d=10&s=1&alea=nvz0&cd=1",
            "uuid=b18e8&id=4G22&n=1&d=10&s=1&alea=BMCw&cd=1",
            "uuid=4c10a&id=6C33&n=3&d=10&s=3&s2=true&s3=true&s4=true&alea=WxiM&cd=1",
            "uuid=0b020&id=4C10-7&n=4&d=10&s=true&s2=5&s3=10&alea=lXkH&cd=1&cols=1",
            "uuid=62f66&id=4C11&n=4&d=10&s=3&s2=true&alea=TrJT&cd=1&cols=1"
        ],
        "test": "https://coopmaths.fr/alea/?uuid=bd660&id=4G20&n=2&d=10&s=3&s2=3&i=1&cd=1&uuid=ab5d4&id=4G21&n=2&d=10&s=3&i=1&cd=1&uuid=0b020&id=4C10-7&n=2&d=10&s=false&s2=5&s3=10&i=1&cd=1&uuid=62f66&id=4C11&n=2&d=10&s=3&s2=true&i=1&cd=1&uuid=4c10a&id=6C33&n=2&d=10&s=3&s2=true&s3=true&s4=true&i=1&cd=1&v=eleve&es=1111001&title=Je+teste+mes+connaissances"
      },
      {
        "numero": 3,
        "notions": [
            "Fonctions : fonctions linéaires",
            "Calcul littéral : simple distributivité, substitution"
        ],
        "echauffement": "https://coopmaths.fr/alea/?uuid=8117d&id=3F13&i=1&uuid=b8946&id=3F12-4&i=1&uuid=ba520&id=3F10-2&n=1&d=10&s=3&s2=1&s3=1&i=1&cd=1&uuid=379cd&id=3C10-2&n=2&d=10&s=5&s2=3&i=1&cd=1&uuid=760d7&id=4C30-1&n=1&d=10&s=4&i=1&cd=1&uuid=a0d16&id=4C32&n=2&d=10&s=1&s2=2&i=1&cd=1&v=eleve&es=1111001&title=Je+teste+mes+connaissances",
        "exercices": [
            "uuid=b4c0d&id=3F21&n=1&d=10&s=1&s2=2&alea=sJyD&cd=1",
            "uuid=056fa&id=3F21-3&n=1&d=10&s=3&s2=3&s3=3&s4=1&alea=MERS&cd=1",
            "uuid=aeb5a&id=3F20&n=3&d=10&s=1&s2=1-4-7&alea=2TFy&cd=1",
            "uuid=8865d&id=5L14-2&n=4&d=10&s=2&alea=kCt9&cd=1",
            "uuid=c88ba&id=3L10-2&n=3&d=10&s=5-6-7-8-9-10&alea=oJ8z&cd=1&cols=1",
            "uuid=db2e0&id=3L11&n=3&d=10&s=3&s2=2&s3=1-2-5&s4=false&alea=QXQn&cd=1"
        ],
        "test": "https://coopmaths.fr/alea/?uuid=b4c0d&id=3F21&n=1&d=10&s=1&s2=1&i=1&cd=1&uuid=056fa&id=3F21-3&n=1&d=10&s=3&s2=3&s3=3&s4=1&i=1&cd=1&uuid=aeb5a&id=3F20&n=3&d=10&s=1&s2=1-4-7&i=1&cd=1&uuid=8865d&id=5L14-2&n=1&d=10&s=2&i=1&cd=1&uuid=c88ba&id=3L10-2&n=1&d=10&s=5-6-7-8-9-10&i=1&cd=1&uuid=db2e0&id=3L11&n=2&d=10&s=3&s2=2&s3=7&s4=false&i=1&cd=1&v=eleve&es=1111001&title=Je+teste+mes+connaissances"
      },
      {
        "numero": 4,
        "notions": [
            "Géométrie : Thalès",
            "Calcul numérique : fractions"
        ],
        "echauffement": "https://coopmaths.fr/alea/?uuid=8117d&id=3F13&i=1&uuid=b8946&id=3F12-4&i=1&uuid=ba520&id=3F10-2&n=1&d=10&s=3&s2=1&s3=1&i=1&cd=1&uuid=379cd&id=3C10-2&n=2&d=10&s=5&s2=3&i=1&cd=1&uuid=760d7&id=4C30-1&n=1&d=10&s=4&i=1&cd=1&uuid=a0d16&id=4C32&n=2&d=10&s=1&s2=2&i=1&cd=1&v=eleve&es=1111001&title=Je+teste+mes+connaissances",
        "exercices": [
            "uuid=6fd12&id=3G20-2&n=1&d=10&s=1&alea=UPpy&cd=1",
            "uuid=74eac&id=3G20&n=1&d=10&s=2&s2=2&alea=UH4Z&cd=0",
            "uuid=74eac&id=3G20&n=1&d=10&s=1&s2=2&alea=v04A&cd=0",
            "uuid=5f429&id=4C21&n=4&d=10&s=2&s2=true&s3=false&s4=true&alea=AbLG&cd=1",
            "uuid=72ce7&id=4C22&n=4&d=10&s=3&s2=true&s3=false&s4=3&alea=XRAS&cd=1",
            "uuid=18ddd&id=4C23-1&n=4&d=10&s=2&s2=true&s3=false&s4=true&alea=6HMg&cd=1"
        ],
        "test": "https://coopmaths.fr/alea/?uuid=74eac&id=3G20&n=1&d=10&s=1&s2=2&i=1&cd=1&uuid=74eac&id=3G20&n=1&d=10&s=2&s2=2&i=1&cd=1&uuid=5f429&id=4C21&n=2&d=10&s=2&s2=true&s3=false&s4=true&i=1&cd=1&uuid=72ce7&id=4C22&n=2&d=10&s=3&s2=true&s3=false&s4=1&i=1&cd=1&uuid=18ddd&id=4C23-1&n=2&d=10&s=2&s2=true&s3=false&s4=true&i=1&cd=1&v=eleve&es=1111001&title=Je+teste+mes+connaissances"
      },
      {
        "numero": 5,
        "notions": [
            "Fonctions : fonctions affines",
            "Calcul littéral : équation"
        ],
        "echauffement": "uuid=8117d&id=3F13&i=1&uuid=b8946&id=3F12-4&i=1&uuid=ba520&id=3F10-2&n=1&d=10&s=3&s2=1&s3=1&i=1&cd=1&uuid=379cd&id=3C10-2&n=2&d=10&s=5&s2=3&i=1&cd=1&uuid=760d7&id=4C30-1&n=1&d=10&s=4&i=1&cd=1&uuid=a0d16&id=4C32&n=2&d=10&s=1&s2=2&i=1&cd=1&v=eleve&es=1111001&title=Je+teste+mes+connaissances",
        "exercices": [
            "uuid=056fa&id=3F21-3&n=1&d=10&s=1&s2=1&s3=3&s4=2&alea=Kh3Y&cd=1",
            "uuid=20c65&id=3F20-3&n=2&d=10&s=1&s2=1&alea=2VDW&cd=1",
            "uuid=20d20&id=3F20-1&n=2&d=10&s=1&s2=1-4&alea=mX1L&cd=1",
            "uuid=f239f&id=3L13&n=4&d=10&s=true&s2=1-4-6-7&s3=false&alea=8Nkb&cd=1",
            "uuid=5a02b&id=3L13-0&n=3&d=10&s=true&s2=3&alea=oMRJ&cd=1&cols=1",
            "uuid=6516e&id=3L13-2&alea=D8Qq"
        ],
        "test": "https://coopmaths.fr/alea/?uuid=056fa&id=3F21-3&n=1&d=10&s=3&s2=3&s3=3&s4=2&i=1&cd=1&uuid=20c65&id=3F20-3&n=1&d=10&s=1&s2=1&i=1&cd=1&uuid=20d20&id=3F20-1&n=2&d=10&s=1&s2=1-4&i=1&cd=1&uuid=f239f&id=3L13&n=1&d=10&s=true&s2=1-4-6-7&s3=false&i=1&cd=1&uuid=5a02b&id=3L13-0&n=2&d=10&s=true&s2=3&i=1&cd=1&uuid=6516e&id=3L13-2&n=1&d=10&s=1&i=1&cd=1&v=eleve&es=1111001&title=Je+teste+mes+connaissances"
      },
      {
        "numero": 6,
        "notions": [
            "Géométrie : trigonométrie",
            "Calcul littéral : double distributivité"
        ],
        "echauffement": "https://coopmaths.fr/alea/?uuid=8117d&id=3F13&i=1&uuid=b8946&id=3F12-4&i=1&uuid=ba520&id=3F10-2&n=1&d=10&s=3&s2=1&s3=1&i=1&cd=1&uuid=379cd&id=3C10-2&n=2&d=10&s=5&s2=3&i=1&cd=1&uuid=760d7&id=4C30-1&n=1&d=10&s=4&i=1&cd=1&uuid=a0d16&id=4C32&n=2&d=10&s=1&s2=2&i=1&cd=1&v=eleve&es=1111001&title=Je+teste+mes+connaissances",
        "exercices": [
            "uuid=0d1f7&id=3G30-1&alea=MIwX",
            "uuid=f13e3&id=3G30-2&n=2&d=10&s=3&alea=mlUO&cd=1",
            "uuid=bd6b1&id=3G30&n=2&d=10&s=false&alea=VnaH&cd=1",
            "uuid=4197c&id=3L11-1&n=4&d=10&s=3&s2=true&s3=false&alea=IRFe&cd=1",
            "uuid=7cf81&id=3L11-7&n=3&d=10&s=true&alea=8BT0&cd=1",
            "uuid=db2e0&id=3L11&n=4&d=10&s=3&s2=2&s3=3-4-5-6&s4=false&alea=BA8z&cd=1"
        ],
        "test": "https://coopmaths.fr/alea/?uuid=0d1f7&id=3G30-1&i=1&uuid=f13e3&id=3G30-2&n=2&d=10&s=3&i=1&cd=1&uuid=bd6b1&id=3G30&n=1&d=10&s=true&i=1&cd=1&uuid=4197c&id=3L11-1&n=2&d=10&s=3&s2=true&s3=false&i=1&cd=1&uuid=7cf81&id=3L11-7&n=1&d=10&s=true&i=1&cd=1&uuid=db2e0&id=3L11&n=1&d=10&s=3&s2=1&s3=3-4-5-6&s4=false&i=1&cd=1&v=eleve&es=1111001&title=Je+teste+mes+connaissances"
      },
      {
        "numero": 7,
        "notions": [
            "Géométrie : Thalès",
            "Calcul numérique : pourcentages"
        ],
        "echauffement": "uuid=8117d&id=3F13&i=1&uuid=b8946&id=3F12-4&i=1&uuid=ba520&id=3F10-2&n=1&d=10&s=3&s2=1&s3=1&i=1&cd=1&uuid=379cd&id=3C10-2&n=2&d=10&s=5&s2=3&i=1&cd=1&uuid=760d7&id=4C30-1&n=1&d=10&s=4&i=1&cd=1&uuid=a0d16&id=4C32&n=2&d=10&s=1&s2=2&i=1&cd=1&v=eleve&es=1111001&title=Je+teste+mes+connaissances",
        "exercices": [
            "uuid=3451c&id=3G21&n=1&d=10&s=1&s2=1&s3=2&alea=PYDN&cd=1",
            "uuid=3451c&id=3G21&n=1&d=10&s=1&s2=2&s3=2&alea=Nc4I&cd=1",
            "uuid=3451c&id=3G21&n=1&d=10&s=2&s2=1&s3=1&alea=oG1r&cd=1",
            "uuid=5199b&id=5P14-2&n=4&d=10&s=2&s2=true&s3=false&s4=10&alea=A3wA&cd=1",
            "uuid=b2c55&id=5N110&n=4&d=10&alea=cOMX&cd=1",
            "uuid=4ce2d&id=3P10-1&n=4&d=10&s=1&alea=J4j8&cd=1"
        ],
        "test": "https://coopmaths.fr/alea/?uuid=3451c&id=3G21&n=1&d=10&s=1&s2=3&s3=3&i=1&cd=1&uuid=3451c&id=3G21&n=1&d=10&s=3&s2=3&s3=3&i=1&cd=1&uuid=3451c&id=3G21&n=1&d=10&s=2&s2=3&s3=3&i=1&cd=1&uuid=5199b&id=5P14-2&n=2&d=10&s=2&s2=true&s3=false&s4=10&i=1&cd=1&uuid=b2c55&id=5N110&n=2&d=10&i=1&cd=1&uuid=4ce2d&id=3P10-1&n=3&d=10&s=1&i=1&cd=1&v=eleve&es=1111001&title=Je+teste+mes+connaissances"
      },
      {
        "numero": 8,
        "notions": [
            "Arithmétique : facteurs premiers",
            "Calcul littéral : double distributivité"
        ],
        "echauffement": "https://coopmaths.fr/alea/?uuid=8117d&id=3F13&i=1&uuid=b8946&id=3F12-4&i=1&uuid=ba520&id=3F10-2&n=1&d=10&s=3&s2=1&s3=1&i=1&cd=1&uuid=379cd&id=3C10-2&n=2&d=10&s=5&s2=3&i=1&cd=1&uuid=760d7&id=4C30-1&n=1&d=10&s=4&i=1&cd=1&uuid=a0d16&id=4C32&n=2&d=10&s=1&s2=2&i=1&cd=1&v=eleve&es=1111001&title=Je+teste+mes+connaissances",
        "exercices": [
            "uuid=eee79&id=3A10-5&n=4&d=10&s=1-2-3-4&s2=5&alea=7MP5&cd=1",
            "uuid=1871d&id=3A11-0&n=4&d=10&s=2&s2=2-3-5-7-11&s3=2&alea=lcNi&cd=1",
            "uuid=8c05e&id=3A12-1&n=1&d=10&s=4&alea=e6dA&cd=1",
            "uuid=4197c&id=3L11-1&n=4&d=10&s=3&s2=true&s3=false&alea=IRFe&cd=1",
            "uuid=7cf81&id=3L11-7&n=3&d=10&s=true&alea=8BT0&cd=1",
            "uuid=db2e0&id=3L11&n=4&d=10&s=3&s2=2&s3=3-4-5-6&s4=false&alea=BA8z&cd=1"
        ],
        "test": "https://coopmaths.fr/alea/?uuid=eee79&id=3A10-5&n=1&d=10&s=1-2-3-4&s2=5&i=1&cd=1&uuid=1871d&id=3A11-0&n=1&d=10&s=2&s2=2-3-5-7-11&s3=2&i=1&cd=1&uuid=8c05e&id=3A12-1&n=1&d=10&s=4&i=1&cd=1&uuid=5f5a6&id=3L11-4&n=1&d=10&s=3&i=1&cd=1&uuid=51360&id=3L11-6&n=2&d=10&s=3&s2=3&i=1&cd=1&uuid=81fd2&id=3L12&n=2&d=10&s=4&s2=true&i=1&cd=1&v=eleve&es=1111001&title=Je+teste+mes+connaissances"
      },
      {
        "numero": 9,
        "notions": [
          "Géométrie : trigonométrie",
          "Calcul littéral : équation produit nul"
        ],
        "echauffement": "uuid=31096&id=can6C26&uuid=c9168&id=can6C29&uuid=99b96&id=can6C41&uuid=0f007&id=can5C20&uuid=47802&id=can5D02&uuid=471bf&id=can4C17&uuid=b60f4&id=can3F09&uuid=864ba&id=can3C15&uuid=0ad86&id=can3C12&uuid=e7754&id=can3L04&v=can&es=0111001&canD=5&canT=2024&canSA=1&canSM=gathered&canI=1",
        "exercices": [
          "uuid=0d1f7&id=3G30-1&n=1&d=10&s=3&alea=EfPF&cd=1",
          "uuid=f13e3&id=3G30-2&n=3&d=10&s=2&alea=qPEC&cd=1",
          "uuid=0ac11&id=3G31&n=3&d=10&s=false&alea=KUVW&cd=1",
          "uuid=ecf62&id=3L14&n=4&d=10&s=8&alea=gNAW&cd=1",
          "uuid=57f44&id=3L15-1&n=2&d=10&s=1&alea=GZS8&cd=1",
          "uuid=231d2&id=3L15&n=4&d=10&s=1-5-6-7&s2=true&alea=DRjp&cd=1"
        ],
        "test": "https://coopmaths.fr/alea/?uuid=0d1f7&id=3G30-1&n=1&d=10&s=3&i=1&cd=1&uuid=f13e3&id=3G30-2&n=2&d=10&s=2&i=1&cd=1&uuid=0ac11&id=3G31&n=2&d=10&s=false&i=1&cd=1&uuid=ecf62&id=3L14&n=2&d=10&s=8&i=1&cd=1&uuid=57f44&id=3L15-1&n=1&d=10&s=1&i=1&cd=1&uuid=231d2&id=3L15&n=2&d=10&s=1-5-6-7&s2=true&i=1&cd=1&v=eleve&es=1111001&title=Je+teste+mes+connaissances"
      },
      {
        "numero": 10,
        "notions": [
          "Fonctions : vocabulaire",
          "Calcul numérique : puissances"
        ],
        "echauffement": "https://coopmaths.fr/alea/?uuid=06268&id=canc3C10&uuid=1db82&id=can6D01&uuid=22f41&id=can6N05&uuid=102f4&id=can5C01&uuid=d9524&id=can4G03&uuid=c5700&id=can4L02&uuid=8767b&id=can4P01&uuid=8d08f&id=can3C01&uuid=47142&id=can3S01&uuid=8e42a&id=can3L09&v=can&es=0111001&canD=5&canT=2024&canSA=1&canSM=gathered&canI=1",
        "exercices": [
          "uuid=b92da&id=3F10&alea=QivO",
          "uuid=4b121&id=3F13-1&alea=WS95",
          "uuid=ba520&id=3F10-2&n=2&d=10&s=3&s2=1&s3=1&alea=xKpn&cd=1",
          "uuid=28dfd&id=2S30-2&n=1&d=10&alea=RjHh&cd=1",
          "uuid=850b0&id=5S21-1&n=1&d=10&alea=EzCl&cd=1",
          "uuid=0cf54&id=2S30-3&n=3&d=10&s=2-3-4&alea=Njrr&cd=1",
          "uuid=0cf54&id=2S30-3&n=3&d=10&s=2-3-4&alea=Njrr&cd=1"
        ],
        "test": "https://coopmaths.fr/alea/?uuid=6c6b3&id=3F10-4&n=1&d=10&s=2&s2=false&alea=sknE&i=1&cd=1&uuid=c9382&id=3F10-5&n=2&d=10&s=3&s2=3&s3=2&alea=Jecn&i=1&cd=1&uuid=8a78e&id=3F10-6&n=1&d=10&s=3&s2=1&s3=2&alea=5oS5&i=1&cd=1&uuid=850b0&id=5S21-1&n=1&d=10&alea=zwcK&i=1&cd=1&uuid=0cf54&id=2S30-3&n=1&d=10&s=2-3-4&alea=HBnP&i=1&cd=1&uuid=76230&id=3S21&n=1&d=10&s=1&s2=false&alea=BhuX&i=1&cd=1&v=eleve&title=Je+teste+mes+connaissances&es=1111001"
      },
      {
        "numero": 11,
        "notions": [
          "Géométrie:parallélogrammes",
          "Calculnumérique:proportionnalité"
        ],
        "echauffement": "https://coopmaths.fr/alea/?uuid=79035&id=can6M01&uuid=59144&id=can6M13&uuid=fb7ac&id=can6N16&uuid=b850a&id=can5N02&uuid=1b91d&id=can5C10&uuid=1f71c&id=can5C18&uuid=2745a&id=can5C27&uuid=966a6&id=can3F01&uuid=bf9f2&id=can3F10&uuid=f0128&id=can3M02&v=can&es=0111001&canD=5&canT=2024&canSA=1&canSM=gathered&canI=1",
        "exercices": [
         "uuid=588fe&id=5G40-2&n=4&d=10&alea=fCiG&cd=1",
         "uuid=8812e&id=5G42&n=3&d=10&alea=cv87&cd=1",
         "uuid=8812e&id=5G42&n=3&d=10&alea=cv87&cd=1",
          "uuid=2d5eb&id=6P15&n=1&d=10&s=3&alea=uhTr&cd=1",
          "uuid=a6b5b&id=4P10-2&n=2&d=10&s=2&alea=0FPq&cd=1",
          "uuid=4db23&id=5P14&alea=qmlA"
        ],
        "test": "https://coopmaths.fr/alea/?uuid=588fe&id=5G40-2&n=1&d=10&alea=EOpw&i=1&cd=1&uuid=8812e&id=5G42&n=2&d=10&alea=GDSx&i=1&cd=1&uuid=af2c2&id=5G40-1&n=2&d=10&s=3&alea=nyAl&i=1&cd=1&uuid=2d5eb&id=6P15&n=1&d=10&s=3&alea=7hwq&i=1&cd=1&uuid=a6b5b&id=4P10-2&n=1&d=10&s=1&alea=ZRjV&i=1&cd=1&uuid=4db23&id=5P14&n=1&d=10&s=2&alea=x4J2&i=1&cd=1&v=eleve&title=Je+teste+mes+connaissances&es=1111001"
      },
      {
        "numero": 12,
        "notions": [
          "Fonctions:fonctions linéaires",
          "Calcullittéral : équations"
        ],
        "echauffement": "https://coopmaths.fr/alea/?uuid=aa22e&id=can6N17&uuid=f8f99&id=can5N01&uuid=cb91f&id=canc3M02&uuid=cc70a&id=can5L01&uuid=ab332&id=can3L05&uuid=67f09&id=can5C22&uuid=d6cd2&id=can3L10&uuid=db589&id=can3M01&uuid=8490c&id=can3S07&uuid=91cd5&id=can4L03&v=can&es=0111001&canD=5&canT=2024&canSA=1&canSM=gathered&canI=1",
        "exercices": [
          "uuid=b4c0d&id=3F21&n=1&d=10&s=3&s2=2&alea=t9mR&cd=1",
          "uuid=aeb5a&id=3F20&n=1&d=10&s=1&s2=8&alea=2G7E&cd=1",
          "uuid=aeb5a&id=3F20&n=2&d=10&s=1&s2=2-5&alea=dVCV&cd=1",
          "uuid=1802d&id=3L13-1&n=4&d=10&alea=qxhA&cd=1",
          "uuid=231d2&id=3L15&n=3&d=10&s=5-6-7&s2=true&alea=Jo1b&cd=1",
          "uuid=231d2&id=3L15&n=3&d=10&s=5-6-7&s2=false&alea=QYm8&cd=1"
        ],
        "test": "https://coopmaths.fr/alea/?uuid=b4c0d&id=3F21&n=1&d=10&s=3&s2=2&alea=zj7D&i=1&cd=1&uuid=aeb5a&id=3F20&n=1&d=10&s=1&s2=8&alea=uZZ6&i=1&cd=1&uuid=aeb5a&id=3F20&n=2&d=10&s=1&s2=2-5&alea=IXRL&i=1&cd=1&uuid=1802d&id=3L13-1&n=1&d=10&alea=QhVz&i=1&cd=1&uuid=231d2&id=3L15&n=2&d=10&s=5-6-7&s2=true&alea=DCf9&i=1&cd=1&uuid=231d2&id=3L15&n=2&d=10&s=5-6-7&s2=false&alea=cPEv&i=1&cd=1&v=eleve&title=Je+teste+mes+connaissances&es=1111001"
      },
      {
        "numero": 13,
        "notions": [
          "Problèmesetmodélisation",
          "Calculnumérique:pourcentages"
        ],
        "echauffement": "https://coopmaths.fr/alea/?uuid=7487c&id=can5P01&uuid=6946a&id=can5P05&uuid=ae712&id=can4G07&uuid=5344c&id=can4G10&uuid=e75ae&id=can4L06&uuid=cf55d&id=can3F03&uuid=87ceb&id=can3S06&uuid=82f73&id=can3F07&uuid=3cf30&id=can3L06&uuid=b2a59&id=can3S02&v=can&es=0111001&canD=5&canT=2024&canSA=1&canSM=gathered&canI=1",
        "exercices": [
          "uuid=a29bd&id=5P11-1&alea=KZwf",
          "uuid=5ca1e&id=4L13-2&n=3&d=10&s=1-2-3-4-5-6-7-8-9&s2=false&alea=JaQb&cd=1",
          "uuid=051c7&id=4C32-3&n=3&d=10&alea=oLmP&cd=1",
          "uuid=4db23&id=5P14&alea=HpjU",
          "uuid=542be&id=5P14-1&alea=Rr7Z",
          "uuid=0bcef&id=3P10&n=3&d=10&s=4&alea=iHlF&cd=1"
        ],
        "test": "https://coopmaths.fr/alea/?uuid=a29bd&id=5P11-1&n=2&d=10&s=4&s2=1&alea=IRXt&i=1&cd=1&uuid=5ca1e&id=4L13-2&alea=8Hu1&i=1&uuid=4db23&id=5P14&alea=yggs&i=1&uuid=542be&id=5P14-1&alea=6fIh&i=1&uuid=0bcef&id=3P10&n=2&d=10&s=4&alea=Qehe&i=1&cd=1&v=eleve&title=Je+teste+mes+connaissances&es=1111001"
      },
      {
        "numero": 14,
        "notions": [
          "Fonctions:fonctions affines",
          "Statistiques"
        ],
        "echauffement": "https://coopmaths.fr/alea/?uuid=8afe0&id=canc3C13&uuid=d0287&id=canc3C05&uuid=eb6bc&id=can5P04&uuid=802cc&id=can5P06&uuid=7b350&id=can5P09&uuid=4b711&id=can4G04&uuid=61c07&id=can4G06&uuid=debe7&id=can3C02&uuid=85416&id=can3G04&uuid=cb6b3&id=can3L03&v=can&es=0111001&canD=5&canT=2024&canSA=1&canSM=gathered&canI=1",
        "exercices": [
          "uuid=056fa&id=3F21-3&n=1&d=10&s=2&s2=2&s3=3&s4=2&alea=TGSL&cd=1",
          "uuid=20c65&id=3F20-3&n=2&d=10&s=2&s2=1&alea=mX1L&cd=1",
          "uuid=20d20&id=3F20-1&n=1&d=10&s=1&s2=3&alea=mX1L&cd=1",
          "uuid=ab91d&id=5S14&n=2&d=10&s=1-3&alea=8uJs&cd=1",
          "uuid=7c068&id=4S11&n=2&d=10&s=1-2&alea=LppH&cd=1",
          "uuid=36e68&id=3S15&n=2&d=10&s=1&alea=weHD&cd=1"
        ],
        "test": "https://coopmaths.fr/alea/?uuid=056fa&id=3F21-3&n=1&d=10&s=2&s2=3&s3=3&s4=2&i=1&cd=1&uuid=20c65&id=3F20-3&n=1&d=10&s=2&s2=1&i=1&cd=1&uuid=20d20&id=3F20-1&n=1&d=10&s=1&s2=3&i=1&cd=1&uuid=ab91d&id=5S14&n=1&d=10&s=2&i=1&cd=1&uuid=7c068&id=4S11&n=2&d=10&s=1-2&i=1&cd=1&uuid=36e68&id=3S15&n=2&d=10&s=3&i=1&cd=1&v=eleve&es=1111001&title=Je+teste+mes+connaissances"
      },
      {
        "numero": 15,
        "notions": [
          "Problèmes et modélisation",
          "Calcul numérique : pourcentages"
        ],
        "echauffement": "https://coopmaths.fr/alea/?uuid=7487c&id=can5P01&uuid=6946a&id=can5P05&uuid=ae712&id=can4G07&uuid=5344c&id=can4G10&uuid=e75ae&id=can4L06&uuid=cf55d&id=can3F03&uuid=87ceb&id=can3S06&uuid=82f73&id=can3F07&uuid=3cf30&id=can3L06&uuid=b2a59&id=can3S02&v=can&es=0111001&canD=5&canT=2024&canSA=1&canSM=gathered&canI=1",
        "exercices": [
          "uuid=a29bd&id=5P11-1&alea=KZwf",
          "uuid=5ca1e&id=4L13-2&n=3&d=10&s=1-2-3-4-5-6-7-8-9&s2=false&alea=JaQb&cd=1",
          "uuid=051c7&id=4C32-3&n=3&d=10&alea=oLmP&cd=1",
          "uuid=4db23&id=5P14&alea=HpjU",
          "uuid=542be&id=5P14-1&alea=Rr7Z",
          "uuid=0bcef&id=3P10&n=3&d=10&s=4&alea=iHlF&cd=1"
        ],
        "test": "https://coopmaths.fr/alea/?uuid=2045e&id=3G32-0&n=1&d=10&s=true&s2=2&i=1&cd=1&uuid=22412&id=3L13-3&n=2&d=10&s=10-11&s2=false&i=1&cd=1&uuid=6f383&id=3G13&n=1&d=10&s=1-7&s2=3&s3=1&s4=true&i=1&cd=1&uuid=d4088&id=3G10-1&n=1&d=10&s=1-2-3&i=1&cd=1&uuid=d4088&id=3G10-1&n=1&d=10&s=4-5-6&i=1&cd=1&v=eleve&es=1111001&title=Je+teste+mes+connaissances"
      }
    ]
}